{
  "data":[
    {
      "id":"文章id",
      "created":"2022-03-08T02:52:31.420Z",
      "comments_index":5,
      "allow_comment":true,
      "title":"文章标题",
      "text":"主要内容",
      "images":[
        {"width":3098,"height":1218,"accent":"#ffffff","type":"png","src":"图片1地址"},
        {"width":3018,"height":1514,"accent":"#fefefe","type":"png","src":"图片2地址"},
        {"width":3030,"height":354,"accent":"#ffffff","type":"png","src":"图片3地址"},
      ],
      "modified":"2022-04-16T06:05:26.565Z",
      "slug":"文章后缀",
      "summary":null,
      "category_id":"分类id",
      "copyright":true,
      "tags":["标签1","标签2"],
      "count":{"read":440,"like":1},
      "meta":null,
      "category":{
        "id":"分类id",
        "type":0,
        "count":56,
        "name":"分类名",
        "slug":"分类后缀",
        "created":"2020-05-06T14:14:02.339Z"
      }
    },
    {
      "id":"文章id",
      "created":"2022-01-14T14:42:21.063Z",
      "comments_index":2,
      "allow_comment":true,
      "title":"文章标题",
      "text":"主要内容",
      "modified":"2022-01-14T14:43:44.557Z",
      "slug":"文章后缀",
      "summary":"精选评论",
      "category_id":"分类id",
      "hide":false,
      "copyright":true,
      "tags":["nextjs"],
      "count":{"read":530,"like":5},
      "images":[
        {"width":3052,"height":1910,"accent":"#5f83ad","type":"png","src":"图片1地址"},
        {"width":2402,"height":1504,"accent":"#615199","type":"png","src":"图片2地址"},
        {"width":3052,"height":1910,"accent":"#6284ac","type":"png","src":"图片3地址"},
        {"width":2402,"height":1504,"accent":"#b45d71","type":"png","src":"图片4地址"},
        {"width":3434,"height":2376,"accent":"#74829b","type":"png","src":"图片5地址"},
      ],
      "meta":null,
      "category":{
        "id":"分类id",
        "type":0,
        "count":56,
        "name":"分类名",
        "slug":"分类后缀",
        "created":"2020-05-06T14:14:02.339Z"
      }
    },
  ],
  "pagination":{
    "total":99,
    "current_page":1,
    "total_page":10,
    "size":10,
    "has_next_page":true,
    "has_prev_page":false
  }
}
